{
	"name" : "Field artillery",
	"nameshort" : "artil",
	"base" : ["vehicle"],
	"namechar" : "/",
	"components" : {
		"Movement" : 
		{
			"type" : "Movement",
			"maxwater" : 2,
			"maxterrain" : 2,
			"watertimecost" : 8,
			"waterfuelcost" : 8,
			"terraintimecost" : 8,
			"terrainfuelcost" : 2
		},
		"Health" :
		{
			"type" : "Health",
			"hitprob" : 0.8,
			"critprob" : 0.1,
			"vulnerability" : {
				"explosive" : 5.0,
				"projectile" : 1.0,
				"armorpiercing" : 2.0
			}
		},
		"Weapon" : 
		{
			"type" : "Weapon",
			"weapons" : [
			{
				"name" : "artillery",
				"range" : 4,
				"minrange" : 2,
				"roundsfired" : 6,
				"hitprob" : 0.5,
				"partialprob" : 0.5,
				"damage" : 20,
				"time" : 100,
				"type" : [
					"explosive"
					]
			}
			]
		}
	}

}
