{
	"name" : "Rocket launcher",
	"nameshort" : "rocket laucher",
	"namechar" : "r",
	"base" : ["unit", "building"],

	"components" :
	{
		"Health" :
		{
			"type" : "Health",
			"hitprob" : 0.8,
			"critprob" : 0.1,
			"vulnerability" : {
				"explosive" : 5.0,
				"projectile" : 1.0,
				"armorpiercing" : 2.0
			}
		},
		"Weapon" :
		{
			"type" : "Weapon",
			"weapons" : [
			{
				"name" : "rockets",
				"range" : 9,
				"minrange" : 3,
				"roundsfired" : 6,
				"hitprob" : 0.8,
				"partialprob" : 0.2,
				"damage" : 20,
				"time" : 100,
				"type" : [
					"explosive"
					]
			}
			]
		}
	}

}
